<svg xmlns="http://www.w3.org/2000/svg" width="10" height="9" viewBox="0 0 10 9">
    <path fill="#131313" fill-rule="evenodd" d="M5 3.607L8.428.18a.625.625 0 0 1 .886.007c.247.246.25.642.007.886L5.893 4.5 9.32 7.928a.625.625 0 0 1-.007.886.626.626 0 0 1-.886.007L5 5.393 1.572 8.82a.625.625 0 0 1-.886-.007.626.626 0 0 1-.007-.886L4.107 4.5.68 1.072A.625.625 0 0 1 .686.186a.626.626 0 0 1 .886-.007L5 3.607z" opacity=".5"/>
</svg>
