<svg xmlns="http://www.w3.org/2000/svg" width="45" height="45" viewBox="0 0 45 45">
    <g fill="none" fill-rule="evenodd" transform="translate(1 1)">
        <circle cx="21.5" cy="21.5" r="21.5" fill="#ff9f00" stroke="#FFF" stroke-width="2"/>
        <path fill="#FFF" d="M14.835 20.217A15.81 15.81 0 0 0 21.8 27.2l2.321-2.328c.28-.287.696-.393 1.079-.274a11.48 11.48 0 0 0 3.774.548c.585.03 1.046.509 1.057 1.095v3.697a1.117 1.117 0 0 1-1.057 1.095 17.97 17.97 0 0 1-12.723-5.301A18.06 18.06 0 0 1 11 12.96a1.005 1.005 0 0 1 1.057-.96h3.7a.998.998 0 0 1 1.058.96 12.364 12.364 0 0 0 .604 3.833c.13.386.026.812-.265 1.096l-2.32 2.327h.001z"/>
    </g>
</svg>
