<svg xmlns="http://www.w3.org/2000/svg" xmlns:xlink="http://www.w3.org/1999/xlink" width="324" height="343" viewBox="0 0 324 343">
    <defs>
        <path id="a" d="M0 .2h324v342H0z"/>
    </defs>
    <g fill="none" fill-rule="evenodd">
        <mask id="b" fill="#fff">
            <use xlink:href="#a"/>
        </mask>
        <use fill="#713D9E" xlink:href="#a"/>
        <path fill="#FFF" d="M73.985 166.635c-56.328 0-91.985-38.241-91.985-86.3C-18 31.757 17.657-7 73.985-7c56.845 0 93.019 38.758 93.019 87.334 0 48.06-36.174 86.301-93.019 86.301zm15.503 176.219H39.362L259.506-1.832h50.644L89.488 342.854zm184.488 6.201c-56.328 0-91.986-38.24-91.986-86.3 0-48.577 35.658-87.335 91.986-87.335s92.502 38.758 92.502 87.334c0 48.06-36.174 86.301-92.502 86.301zM73.986 111.857c16.536 0 29.972-9.302 29.972-31.523 0-23.254-13.436-32.556-29.973-32.556-16.02 0-28.939 9.302-28.939 32.556 0 22.221 12.92 31.523 28.94 31.523zm199.99 182.42c16.536 0 29.972-8.785 29.972-31.523 0-23.254-13.436-32.556-29.972-32.556-16.537 0-29.456 9.302-29.456 32.556 0 22.738 12.919 31.524 29.456 31.524z" mask="url(#b)" opacity=".054"/>
        <path fill="#FFF" fill-opacity=".9" d="M78.689 200.58h36.974v-43H78.689v43zm-42.139 0h36.97v-43H36.55v43zm-4.38-69.842h37.705l-9.977 9.977a2.582 2.582 0 0 0 0 3.655 2.586 2.586 0 0 0 3.655 0l9.966-9.967v18.008H32.17v-21.673zm18.837-9.897a7.484 7.484 0 0 1-2.21-5.332 7.477 7.477 0 0 1 2.212-5.337c2.94-2.942 7.726-2.942 10.567-.106.038.038 3.665 4.117 6.187 8.095 1.665 2.61 3.133 5.32 4.2 7.408H55.734l-4.727-4.728zm39.522-10.67c2.95-2.94 7.736-2.938 10.675 0a7.5 7.5 0 0 1 2.21 5.335 7.507 7.507 0 0 1-2.21 5.335l-4.73 4.728H80.247c1.068-2.089 2.536-4.798 4.198-7.41 2.497-3.932 6.092-7.987 6.084-7.987zm29.515 42.24H78.688v-18.008l6.245 6.245a2.578 2.578 0 0 0 1.828.757 2.585 2.585 0 0 0 1.827-4.415l-6.255-6.252h37.711v21.673zm2.585-26.842h-18.84l1.07-1.073a12.63 12.63 0 0 0 3.725-8.987c0-3.396-1.321-6.591-3.725-8.995-4.952-4.952-13.02-4.955-18.083.109-.162.178-3.946 4.435-6.694 8.762-1.55 2.435-2.908 4.89-3.978 6.937-1.07-2.047-2.424-4.502-3.975-6.935-2.75-4.326-6.534-8.586-6.798-8.873-4.957-4.952-13.024-4.952-17.976 0a12.617 12.617 0 0 0-3.728 8.995c0 3.396 1.324 6.588 3.728 8.987l1.07 1.073h-18.84A2.584 2.584 0 0 0 27 128.153v26.842a2.586 2.586 0 0 0 2.585 2.585h1.796v45.584a2.587 2.587 0 0 0 2.585 2.585h84.282a2.586 2.586 0 0 0 2.584-2.585V157.58h1.797a2.586 2.586 0 0 0 2.584-2.585v-26.842a2.584 2.584 0 0 0-2.584-2.584z" mask="url(#b)"/>
    </g>
</svg>
