<svg xmlns="http://www.w3.org/2000/svg" width="17" height="15" viewBox="0 0 17 15">
    <path fill="#E14F69" fill-rule="evenodd" d="M14.77 1.458a4.493 4.493 0 0 0-6.45-.018 4.496 4.496 0 0 0-6.472 0C.061 3.27.061 6.241 1.848 8.074l6.46 6.652 6.48-6.652c1.77-1.835 1.763-4.793-.018-6.617z"/>
</svg>
