<svg xmlns="http://www.w3.org/2000/svg" width="10" height="10" viewBox="0 0 10 10">
    <path fill="#FF9F00" fill-rule="evenodd" d="M.607 9.4L0 8.793l4.396-4.397L8.793 0l.603.603c.332.332.604.61.604.617 0 .014-8.766 8.787-8.78 8.787-.003 0-.28-.273-.613-.607zm7.228.472a1.725 1.725 0 0 1-1.226-.94 1.701 1.701 0 0 1-.17-.753c0-.198.026-.357.089-.543.09-.27.217-.473.423-.677.196-.194.402-.323.644-.404.221-.074.3-.086.564-.087.218 0 .257.003.385.035.346.087.588.222.83.463.35.349.519.783.5 1.288a1.71 1.71 0 0 1-1.401 1.62 2 2 0 0 1-.638-.002zm-6.223-6.32a1.985 1.985 0 0 1-.324-.075A1.715 1.715 0 0 1 .19 2.404a1.821 1.821 0 0 1-.062-.898A1.719 1.719 0 0 1 1.282.204a1.783 1.783 0 0 1 1.152.027c.51.2.905.638 1.045 1.158a1.727 1.727 0 0 1-.842 1.965 1.571 1.571 0 0 1-.776.2 2.957 2.957 0 0 1-.25-.002z"/>
</svg>
