<?xml version="1.0" encoding="UTF-8" standalone="no"?>
<!-- License Agreement at http://iconmonstr.com/license/ -->

<svg
   xmlns:dc="http://purl.org/dc/elements/1.1/"
   xmlns:cc="http://creativecommons.org/ns#"
   xmlns:rdf="http://www.w3.org/1999/02/22-rdf-syntax-ns#"
   xmlns:svg="http://www.w3.org/2000/svg"
   xmlns="http://www.w3.org/2000/svg"
   xmlns:sodipodi="http://sodipodi.sourceforge.net/DTD/sodipodi-0.dtd"
   xmlns:inkscape="http://www.inkscape.org/namespaces/inkscape"
   version="1.1"
   x="0px"
   y="0px"
   width="412.00137"
   height="293.15491"
   viewBox="0 0 412.00137 293.15491"
   enable-background="new 0 0 512 512"
   xml:space="preserve"
   id="svg2"
   inkscape:version="0.91 r13725"
   sodipodi:docname="quote.svg"><metadata
     id="metadata9"><rdf:RDF><cc:Work
         rdf:about=""><dc:format>image/svg+xml</dc:format><dc:type
           rdf:resource="http://purl.org/dc/dcmitype/StillImage" /><dc:title></dc:title></cc:Work></rdf:RDF></metadata><defs
     id="defs7" /><sodipodi:namedview
     pagecolor="#ffffff"
     bordercolor="#666666"
     borderopacity="1"
     objecttolerance="10"
     gridtolerance="10"
     guidetolerance="10"
     inkscape:pageopacity="0"
     inkscape:pageshadow="2"
     inkscape:window-width="1058"
     inkscape:window-height="704"
     id="namedview5"
     showgrid="false"
     fit-margin-top="0"
     fit-margin-left="0"
     fit-margin-right="0"
     fit-margin-bottom="0"
     inkscape:zoom="0.4609375"
     inkscape:cx="208.16986"
     inkscape:cy="146.5779"
     inkscape:window-x="489"
     inkscape:window-y="130"
     inkscape:window-maximized="0"
     inkscape:current-layer="svg2" /><path
     id="quote-5-icon"
     d="M 5.1783668,223.472 C -17.041633,144.037 32.054367,24.498 156.18237,0 l 16.886,36.498 c -38.022,14.331 -63.218,47.064 -66.943,81.466 42.757,6.73 75.459,43.737 75.459,88.385 -0.001,99.242 -146.403003,124.39 -176.4060032,17.123 z m 230.4170032,0 C 213.37537,144.037 262.47137,24.498 386.59937,0 l 16.886,36.498 c -38.022,14.331 -63.218,47.064 -66.943,81.466 42.757,6.73 75.459,43.737 75.459,88.385 -0.001,99.242 -146.403,124.39 -176.406,17.123 z"
     inkscape:connector-curvature="0"
     style="fill:#FF9F00;fill-opacity:1" /></svg>