<svg xmlns="http://www.w3.org/2000/svg" width="24" height="23" viewBox="0 0 24 23">
    <path fill="#EAEAEA" fill-rule="evenodd" d="M.794 11.5C.794 5.149 5.908 0 12.217 0c6.31 0 11.424 5.149 11.424 11.5S18.526 23 12.217 23C5.908 23 .794 17.851.794 11.5zm12.02 3.774s.22-.024.333-.144c.103-.11.1-.316.1-.316s-.014-.965.44-1.108c.447-.14 1.02.934 1.63 1.347.46.312.809.243.809.243l1.627-.022s.851-.052.448-.713c-.033-.054-.235-.49-1.21-1.384-1.02-.935-.884-.784.345-2.403.749-.986 1.048-1.588.954-1.845-.088-.246-.64-.18-.64-.18l-1.831.01s-.136-.018-.237.042c-.098.058-.162.194-.162.194s-.29.763-.676 1.412c-.816 1.368-1.142 1.44-1.276 1.356-.31-.199-.233-.796-.233-1.221 0-1.327.204-1.88-.396-2.023-.199-.048-.346-.079-.855-.084-.654-.007-1.207.002-1.52.154-.21.1-.37.325-.272.338.121.016.395.073.54.269.189.252.182.819.182.819s.108 1.562-.252 1.755c-.247.134-.585-.138-1.313-1.38-.372-.636-.654-1.34-.654-1.34s-.054-.13-.151-.201c-.118-.086-.281-.112-.281-.112l-1.741.011s-.262.007-.358.12c-.085.1-.006.306-.006.306s1.363 3.151 2.906 4.74c1.416 1.455 3.022 1.36 3.022 1.36h.729z"/>
</svg>
