<?xml version="1.0" encoding="utf-8"?>
<!-- Generator: Adobe Illustrator 21.1.0, SVG Export Plug-In . SVG Version: 6.00 Build 0)  -->
<svg version="1.1" id="Слой_1" xmlns="http://www.w3.org/2000/svg" xmlns:xlink="http://www.w3.org/1999/xlink" x="0px" y="0px"
	 viewBox="0 0 246 53.8" style="enable-background:new 0 0 246 53.8;" width="224" xml:space="preserve">
<style type="text/css">
	.st0{fill:#FFFFFF;}
	.st1{fill:#F8A01B;}
	.st2{fill:#010202;}
	.st3{fill:#9F9E9F;}
</style>
<g>
	<path id="path-1" class="st0" d="M32,16.4c-0.3,0.5-2.7,6.5-6.4,10.3c-2.3,2.4-5.8,4.7-9.3,4.2c-3.5-0.5-6.2-3.1-8-6
		c-0.9-1.4-2.8-5.2-3.4-7.9c-0.1-0.6,0.4-0.8,0.5-0.4c1.1,2,5.9,6.2,12.1,6.4c2.7,0.1,6.3-0.7,8.6-2.2c1.9-1.2,3.8-3.2,5.3-5.1
		C31.7,15.3,32.3,15.9,32,16.4 M10.3,8.9c0.5-0.8,1.2-1.2,1.8-1.2c0.7,0,1.4,0.4,1.8,1.2c0.5,0.8,0.8,1.8,0.8,2.9
		c0,1.1-0.3,2.2-0.8,2.9c-0.5,0.8-1.2,1.2-1.8,1.2c-0.7,0-1.4-0.4-1.8-1.2c-0.5-0.8-0.8-1.8-0.8-2.9C9.6,10.8,9.9,9.7,10.3,8.9
		 M21.7,9.8c0.5-0.7,1.2-1.2,1.9-1.1c0.7,0,1.3,0.5,1.8,1.3c0.4,0.8,0.7,1.9,0.6,3s-0.4,2.2-0.9,2.9c-0.5,0.7-1.2,1.2-1.9,1.1
		c-0.7,0-1.3-0.5-1.8-1.3c-0.4-0.8-0.7-1.9-0.6-3C20.8,11.6,21.1,10.5,21.7,9.8 M35.8,10.8c0-5.9-4.8-10.7-10.6-10.7l-14.6,0
		C4.7,0.1,0,4.9,0,10.8l0,14.7c0,5.9,4.8,10.7,10.6,10.7l14.6,0c5.9,0,10.6-4.8,10.6-10.7L35.8,10.8"/>
</g>
<title>Group 9</title>
<desc>Created with Sketch.</desc>
<g id="Shop">
	<g id="StartSmile---Shop-_x28_Card_x29_---1440px" transform="translate(-155.000000, -8.000000)">
		<g id="Group-9" transform="translate(155.000000, 8.000000)">
			<g id="logo" transform="translate(35.000000, 33.000000)">
				<path id="Экспертный-журнал-о" d="M13,18.2c2.5,0,3.8-1.6,3.8-4c0-2.2-1.3-3.9-3.7-3.9c-0.9,0-1.6,0.2-2.2,0.5
					l0.3,0.8c0.5-0.3,1.1-0.4,1.8-0.4c1.7,0,2.6,1.1,2.7,2.5h-3.7v0.9h3.7c-0.1,1.8-1.1,2.7-2.7,2.7c-0.8,0-1.4-0.2-1.9-0.4v0.9
					C11.5,18,12.2,18.2,13,18.2z M18.2,18h1v-2.4h1c0.2,0,0.3,0.2,0.5,0.6l0.8,1.8h1.1l-1-2.1c-0.2-0.4-0.4-0.6-0.7-0.7v0
					c0.6-0.3,0.6-1.3,0.9-1.7c0.1-0.1,0.2-0.2,0.4-0.2c0.1,0,0.2,0,0.3,0.1v-0.9c-0.1,0-0.3-0.1-0.5-0.1c-0.5,0-0.8,0.2-1,0.5
					c-0.4,0.7-0.4,1.9-1.2,1.9h-0.7v-2.3h-1V18z M26.2,18.2c0.7,0,1.4-0.2,1.8-0.5l-0.3-0.7c-0.4,0.2-0.8,0.4-1.3,0.4
					c-1.1,0-1.8-0.7-1.8-2c0-1.2,0.7-2,1.9-2c0.5,0,1,0.2,1.4,0.4v-0.9c-0.3-0.2-0.8-0.4-1.4-0.4c-1.7,0-2.8,1.3-2.8,3
					C23.5,16.9,24.4,18.2,26.2,18.2z M29,18h1v-4.6h2.5V18h1v-5.5H29V18z M39.5,15.5h-3.6c0,1,0.7,1.8,1.8,1.8c0.5,0,1-0.2,1.4-0.4
					l0.3,0.7c-0.5,0.3-1.2,0.5-1.8,0.5c-1.9,0-2.7-1.3-2.7-2.9c0-1.7,0.9-2.9,2.4-2.9c1.5,0,2.3,1.1,2.3,2.9V15.5z M35.9,14.7h2.5
					c0-0.8-0.4-1.5-1.2-1.5C36.4,13.2,35.9,13.9,35.9,14.7z M40.8,20.8v-8.1c0.6-0.2,1.3-0.3,1.9-0.3c1.9,0,2.9,1.1,2.9,2.9
					c0,1.8-1.2,2.9-2.9,2.9c-0.3,0-0.7-0.1-0.9-0.2v2.8H40.8z M41.8,17.1c0.3,0.1,0.6,0.2,0.9,0.2c1.2,0,1.8-0.8,1.8-2
					c0-1.4-0.8-2-1.9-2c-0.3,0-0.6,0-0.9,0.1V17.1z M48.2,18h1v-4.7h1.7l0.3-0.9h-4.9v0.9h1.8V18z M52.2,18h1v-2.5h2.6V18h1v-5.5h-1
					v2.1h-2.6v-2.1h-1V18z M58.4,18v-5.5h1v2.1c0.2,0,0.5,0,0.7,0c1.8,0,2.4,0.8,2.4,1.7c0,0.9-0.5,1.8-2.4,1.8H58.4z M59.4,17.2
					h0.6c1.1,0,1.3-0.4,1.3-0.9c0-0.5-0.3-0.9-1.3-0.9c-0.2,0-0.4,0-0.6,0V17.2z M63.2,18h1v-5.5h-1V18z M65.8,18h1l2.1-2.9
					c0.3-0.5,0.6-0.8,0.8-1.2h0c0,0.4,0,0.7,0,1.1V18h1v-5.5h-1l-2.1,2.9c-0.3,0.5-0.6,0.8-0.8,1.2h0c0-0.4,0-0.7,0-1.1v-2.9h-1V18z
					 M68.3,11.7c1.2,0,1.9-0.7,1.8-1.8h-0.9c0,0.5-0.2,1-0.9,1c-0.7,0-0.9-0.5-0.9-1h-0.9C66.5,11,67.1,11.7,68.3,11.7z M74.4,18
					h1.1l0.8-1.8c0.2-0.4,0.4-0.6,0.5-0.6h0.9V18h1v-2.4h0.9c0.2,0,0.4,0.2,0.6,0.6L81,18h1.1l-1-2.1c-0.2-0.4-0.4-0.6-0.7-0.7v0
					c0.6-0.3,0.6-1.3,0.9-1.7c0.1-0.1,0.2-0.2,0.4-0.2c0.1,0,0.2,0,0.3,0v-0.9c-0.1,0-0.3-0.1-0.5-0.1c-0.5,0-0.7,0.2-0.9,0.5
					c-0.4,0.7-0.4,2-1.2,2h-0.7v-2.3h-1v2.3h-0.7c-0.8,0-0.7-1.3-1.2-2c-0.2-0.3-0.5-0.5-0.9-0.5c-0.1,0-0.3,0-0.5,0.1v0.9
					c0.1,0,0.2,0,0.3,0c0.2,0,0.3,0.1,0.4,0.2c0.3,0.4,0.3,1.4,0.9,1.7v0c-0.3,0.1-0.5,0.3-0.7,0.7L74.4,18z M88,12.5h-1.1l-1.4,4.3
					h0l-1.8-4.3h-1.1l2.5,5.5c-0.4,1.4-1,1.9-1.7,1.9c-0.3,0-0.6-0.1-0.8-0.2l-0.2,0.8c0.3,0.1,0.7,0.2,1.1,0.2
					c0.9,0,1.8-0.3,2.6-2.4L88,12.5z M88.9,20.8v-8.1c0.6-0.2,1.3-0.3,1.9-0.3c1.9,0,2.9,1.1,2.9,2.9c0,1.8-1.2,2.9-2.9,2.9
					c-0.3,0-0.7-0.1-0.9-0.2v2.8H88.9z M90,17.1c0.3,0.1,0.6,0.2,0.9,0.2c1.2,0,1.8-0.8,1.8-2c0-1.4-0.8-2-1.9-2
					c-0.3,0-0.6,0-0.9,0.1V17.1z M95,18h1v-2.5h2.6V18h1v-5.5h-1v2.1h-2.6v-2.1h-1V18z M104.6,18l-0.2-0.6c-0.4,0.4-1,0.7-1.7,0.7
					c-1,0-1.8-0.7-1.8-1.7c0-0.7,0.4-1.2,0.9-1.5c0.4-0.2,0.8-0.3,1.4-0.3l1,0v-0.3c0-0.8-0.5-1.1-1.2-1.1c-0.6,0-1.1,0.2-1.5,0.4
					l-0.4-0.7c0.7-0.4,1.4-0.5,2-0.5c1.3,0,2.1,0.6,2.1,1.9v2c0,0.9,0,1.4,0.1,1.7H104.6z M104.3,15.4l-0.9,0c-0.5,0-0.7,0.1-1,0.2
					c-0.3,0.2-0.4,0.4-0.4,0.8c0,0.6,0.4,0.9,1,0.9c0.7,0,1.1-0.4,1.4-0.6V15.4z M106.5,18.1c0.5,0,0.9-0.2,1.3-0.6
					c0.5-0.7,1-2.3,1.3-4.1h1.2V18h1v-5.5h-3.1c-0.2,2-0.7,3.6-1.2,4.3c-0.2,0.3-0.4,0.4-0.6,0.4c0,0-0.1,0-0.2,0v0.9
					C106.3,18.1,106.5,18.1,106.5,18.1z M117.9,18.2c-1.6,0-2.7-1.3-2.7-2.9c0-1.6,1.1-2.9,2.7-2.9c1.6,0,2.7,1.3,2.7,2.9
					C120.6,16.9,119.5,18.2,117.9,18.2z M117.9,17.3c1,0,1.6-0.9,1.6-2c0-1.2-0.6-2-1.6-2c-1,0-1.6,0.9-1.6,2
					C116.4,16.5,116.9,17.3,117.9,17.3z M126.9,18.2c0.7,0,1.4-0.2,1.8-0.5l-0.3-0.7c-0.4,0.2-0.8,0.4-1.3,0.4c-1.1,0-1.8-0.7-1.8-2
					c0-1.2,0.7-2,1.9-2c0.5,0,1,0.2,1.4,0.4v-0.9c-0.3-0.2-0.8-0.4-1.4-0.4c-1.7,0-2.8,1.3-2.8,3C124.2,16.9,125.2,18.2,126.9,18.2z
					 M131,18h1v-4.7h1.7l0.3-0.9h-4.9v0.9h1.8V18z M137.3,18.2c-1.6,0-2.7-1.3-2.7-2.9c0-1.6,1.1-2.9,2.7-2.9c1.6,0,2.7,1.3,2.7,2.9
					C140,16.9,139,18.2,137.3,18.2z M137.3,17.3c1,0,1.6-0.9,1.6-2c0-1.2-0.6-2-1.6-2c-1,0-1.6,0.9-1.6,2
					C135.8,16.5,136.4,17.3,137.3,17.3z M141.3,18h1v-2.8c0-0.4,0-0.9,0-1.1h0c0.1,0.2,0.3,0.6,0.5,0.9l1,1.6h0.5l1-1.6
					c0.2-0.3,0.4-0.7,0.5-0.9h0c0,0.2,0,0.7,0,1.1V18h1v-5.5h-1.1l-1.1,1.8c-0.3,0.4-0.5,0.9-0.7,1.2h0c-0.1-0.3-0.4-0.7-0.6-1.2
					l-1.1-1.8h-1V18z M151.8,18l-0.2-0.6c-0.4,0.4-1,0.7-1.7,0.7c-1,0-1.8-0.7-1.8-1.7c0-0.7,0.4-1.2,0.9-1.5
					c0.4-0.2,0.8-0.3,1.4-0.3l1,0v-0.3c0-0.8-0.5-1.1-1.2-1.1c-0.6,0-1.1,0.2-1.5,0.4l-0.4-0.7c0.7-0.4,1.4-0.5,2-0.5
					c1.3,0,2.1,0.6,2.1,1.9v2c0,0.9,0,1.4,0.1,1.7H151.8z M151.5,15.4l-0.9,0c-0.5,0-0.7,0.1-1,0.2c-0.3,0.2-0.4,0.4-0.4,0.8
					c0,0.6,0.4,0.9,1,0.9c0.7,0,1.1-0.4,1.4-0.6V15.4z M155.4,18h1v-4.7h1.7l0.3-0.9h-4.9v0.9h1.8V18z M161.7,18.2
					c-1.6,0-2.7-1.3-2.7-2.9c0-1.6,1.1-2.9,2.7-2.9c1.6,0,2.7,1.3,2.7,2.9C164.4,16.9,163.3,18.2,161.7,18.2z M161.7,17.3
					c1,0,1.6-0.9,1.6-2c0-1.2-0.6-2-1.6-2c-1,0-1.6,0.9-1.6,2C160.1,16.5,160.7,17.3,161.7,17.3z M165.3,18.1c0.5,0,0.9-0.2,1.3-0.6
					c0.5-0.7,1-2.3,1.3-4.1h1.2V18h1v-5.5H167c-0.2,2-0.7,3.6-1.2,4.3c-0.2,0.3-0.4,0.4-0.6,0.4c0,0-0.1,0-0.2,0v0.9
					C165.1,18.1,165.2,18.1,165.3,18.1z M174,18.2c-1.6,0-2.7-1.3-2.7-2.9c0-1.6,1.1-2.9,2.7-2.9c1.6,0,2.7,1.3,2.7,2.9
					C176.7,16.9,175.7,18.2,174,18.2z M174,17.3c1,0,1.6-0.9,1.6-2c0-1.2-0.6-2-1.6-2c-1,0-1.6,0.9-1.6,2
					C172.5,16.5,173.1,17.3,174,17.3z M178,18h1v-4.6h2.4l0.3-0.9H178V18z M182.7,18h1l2.1-2.9c0.3-0.5,0.6-0.8,0.8-1.2h0
					c0,0.4,0,0.7,0,1.1V18h1v-5.5h-1l-2.1,2.9c-0.3,0.5-0.6,0.8-0.8,1.2h0c0-0.4,0-0.7,0-1.1v-2.9h-1V18z M189.1,18h1l2.1-2.9
					c0.3-0.5,0.6-0.8,0.8-1.2h0c0,0.4,0,0.7,0,1.1V18h1v-5.5h-1l-2.1,2.9c-0.3,0.5-0.6,0.8-0.8,1.2h0c0-0.4,0-0.7,0-1.1v-2.9h-1V18z
					"/>
			</g>
			<g id="Page-1">
				<g id="Group-3">
					<g id="Fill-1">
						<path id="path-1_1_" class="st1" d="M32,16.4c-0.3,0.5-2.7,6.5-6.4,10.3c-2.3,2.4-5.8,4.7-9.3,4.2c-3.5-0.5-6.2-3.1-8-6
							c-0.9-1.4-2.8-5.2-3.4-7.9c-0.1-0.6,0.4-0.8,0.5-0.4c1.1,2,5.9,6.2,12.1,6.4c2.7,0.1,6.3-0.7,8.6-2.2c1.9-1.2,3.8-3.2,5.3-5.1
							C31.7,15.3,32.3,15.9,32,16.4 M10.3,8.9c0.5-0.8,1.2-1.2,1.8-1.2c0.7,0,1.4,0.4,1.8,1.2c0.5,0.8,0.8,1.8,0.8,2.9
							c0,1.1-0.3,2.2-0.8,2.9c-0.5,0.8-1.2,1.2-1.8,1.2c-0.7,0-1.4-0.4-1.8-1.2c-0.5-0.8-0.8-1.8-0.8-2.9C9.6,10.8,9.9,9.7,10.3,8.9
							 M21.7,9.8c0.5-0.7,1.2-1.2,1.9-1.1c0.7,0,1.3,0.5,1.8,1.3c0.4,0.8,0.7,1.9,0.6,3s-0.4,2.2-0.9,2.9c-0.5,0.7-1.2,1.2-1.9,1.1
							c-0.7,0-1.3-0.5-1.8-1.3c-0.4-0.8-0.7-1.9-0.6-3C20.8,11.6,21.1,10.5,21.7,9.8 M35.8,10.8c0-5.9-4.8-10.7-10.6-10.7l-14.6,0
							C4.7,0.1,0,4.9,0,10.8l0,14.7c0,5.9,4.8,10.7,10.6,10.7l14.6,0c5.9,0,10.6-4.8,10.6-10.7L35.8,10.8"/>
					</g>
				</g>
				<g id="Group-25" transform="translate(34.000000, 0.000000)">
					<path id="Fill-4" class="st2" d="M12,25.9c1.4,1,3.3,1.8,5.4,1.8c2,0,4-0.8,4-2.9c0-4.8-10.4-4.2-10.4-11.7
						c0-3.6,2.8-6.8,7.8-6.8c2.5,0,4.6,0.6,5.9,1.2v4.1c-1.9-1-3.8-1.6-5.7-1.6c-1.7,0-3.3,0.7-3.3,2.6c0,4.5,10.4,3.9,10.4,11.7
						c0,4.3-3.7,7-8.6,7c-2.8,0-5.4-0.8-7.3-2.1L12,25.9z"/>
					<polygon id="Fill-6" class="st2" points="36.3,10.4 29.3,10.4 29.3,6.6 48.3,6.6 47.1,10.4 40.7,10.4 40.7,31.1 36.3,31.1 
											"/>
					<path id="Fill-8" class="st2" d="M61.6,21.3L60,16.5c-0.7-1.9-1-3-1.2-3.8h-0.1c-0.2,0.9-0.6,1.9-1.2,3.8l-1.8,4.8H61.6z
						 M56.9,6.5h3.5l9.7,24.6h-4.7L63,25h-8.6l-2.3,6.1h-4.6L56.9,6.5L56.9,6.5z"/>
					<path id="Fill-10" class="st2" d="M78.6,17.9c1.1,0,1.9-0.2,2.7-0.6c1-0.6,1.7-1.7,1.7-3.2c0-1.3-0.5-2.5-1.6-3.1
						c-0.6-0.4-1.4-0.7-2.7-0.7h-2v7.7H78.6z M72.2,6.6h6.6c2.3,0,3.9,0.4,5.1,1c2.6,1.2,3.6,3.5,3.6,6c0,3.3-1.9,5.4-4.7,6.3V20
						c0.7,0.4,1.7,1.7,3,4l4,7.1h-5l-3.5-6.2c-1.2-2.2-2-3.2-2.6-3.3h-2.1v9.5h-4.4V6.6L72.2,6.6z"/>
					<polygon id="Fill-12" class="st2" points="96.7,10.4 89.7,10.4 89.7,6.6 108.7,6.6 107.5,10.4 101.1,10.4 101.1,31.1 
						96.7,31.1 					"/>
					<path id="Fill-14" class="st2" d="M111.2,25.9c1.4,1,3.3,1.8,5.4,1.8c2,0,4-0.8,4-2.9c0-4.8-10.4-4.2-10.4-11.7
						c0-3.6,2.8-6.8,7.8-6.8c2.5,0,4.6,0.6,5.9,1.2v4.1c-1.9-1-3.8-1.6-5.7-1.6c-1.7,0-3.3,0.7-3.3,2.6c0,4.5,10.4,3.9,10.4,11.7
						c0,4.3-3.7,7-8.6,7c-2.8,0-5.4-0.8-7.3-2.1L111.2,25.9"/>
					<path id="Fill-16" class="st2" d="M129,6.6h4l6.3,9.2c0.8,1.3,1.5,2.2,2,3.2h0.1c0.5-0.9,1.1-2,2-3.3l5.8-9.1h4v24.5h-4.4V17.3
						c0-1,0-2.3,0.1-3.2h-0.1c-0.3,0.7-1.2,2.1-1.6,2.7l-4.7,7.5h-2l-5.3-7.7c-0.5-0.7-1.2-1.6-1.6-2.5h-0.1c0,1,0,2.2,0,3.1v13.9
						H129V6.6"/>
					<polygon id="Fill-18" class="st2" points="158.7,31.1 163.1,31.1 163.1,6.6 158.7,6.6 					"/>
					<polygon id="Fill-20" class="st2" points="168.5,6.6 172.9,6.6 172.9,27.3 181.4,27.3 181.4,31.1 168.5,31.1 					"/>
					<polygon id="Fill-21" class="st2" points="183.7,6.6 197,6.6 195.8,10.4 188.1,10.4 188.1,16.8 195.8,16.8 195.8,20.6 
						188.1,20.6 188.1,27.3 197.1,27.3 197.1,31.1 183.7,31.1 					"/>
					<polygon id="Fill-22" class="st1" points="158.7,4.6 163.1,4.6 163.1,0.1 158.7,0.1 					"/>
					<polygon id="Fill-23" class="st3" points="202.8,0.7 201.3,0.7 201.3,0.2 205,0.2 204.8,0.7 203.4,0.7 203.4,4.4 202.8,4.4 
											"/>
					<path id="Fill-24" class="st3" d="M205.6,0.2h0.6l1.3,1.7c0.2,0.3,0.3,0.4,0.4,0.6h0c0.1-0.2,0.2-0.4,0.4-0.6l1.2-1.7h0.6v4.2
						h-0.7V1.8c0-0.2,0-0.5,0-0.7h0c-0.1,0.2-0.3,0.4-0.3,0.5l-1.1,1.5h-0.3l-1.2-1.6c-0.1-0.1-0.2-0.3-0.3-0.5h0c0,0.2,0,0.5,0,0.6
						v2.6h-0.7V0.2"/>
				</g>
			</g>
		</g>
	</g>
</g>
</svg>
