<?xml version="1.0" encoding="utf-8"?>
<!-- Generator: Adobe Illustrator 21.0.0, SVG Export Plug-In . SVG Version: 6.00 Build 0)  -->
<svg version="1.1"
	 id="Layer_1" inkscape:version="0.48.4 r9939" sodipodi:docname="startsml_logo_v2.svg" xmlns:cc="http://creativecommons.org/ns#" xmlns:dc="http://purl.org/dc/elements/1.1/" xmlns:inkscape="http://www.inkscape.org/namespaces/inkscape" xmlns:rdf="http://www.w3.org/1999/02/22-rdf-syntax-ns#" xmlns:sodipodi="http://sodipodi.sourceforge.net/DTD/sodipodi-0.dtd" xmlns:svg="http://www.w3.org/2000/svg"
	 xmlns="http://www.w3.org/2000/svg" xmlns:xlink="http://www.w3.org/1999/xlink" x="0px" y="0px" viewBox="0 0 35.1 35.2"
	 style="enable-background:new 0 0 35.1 35.2;" xml:space="preserve">
<style type="text/css">
	.st0{fill:#FF9F00;}
</style>
<sodipodi:namedview  bordercolor="#666666" borderopacity="1" fit-margin-bottom="0" fit-margin-left="0" fit-margin-right="0" fit-margin-top="0" gridtolerance="10" guidetolerance="10" id="namedview37" inkscape:current-layer="Layer_1" inkscape:cx="227.73352" inkscape:cy="32.877521" inkscape:pageopacity="0" inkscape:pageshadow="2" inkscape:window-height="1028" inkscape:window-maximized="1" inkscape:window-width="1855" inkscape:window-x="65" inkscape:window-y="24" inkscape:zoom="0.67842455" objecttolerance="10" pagecolor="#ffffff" showgrid="false">
	</sodipodi:namedview>
<path id="path5" inkscape:connector-curvature="0" class="st0" d="M35.1,10.5c0-5.7-4.7-10.4-10.4-10.3l-14.2,0
	C4.7,0.1,0.1,4.8,0.1,10.5l0,14.3c0,5.7,4.7,10.4,10.4,10.3l14.2,0c5.7,0,10.4-4.7,10.3-10.4L35.1,10.5z M21.3,9.5
	c0.5-0.7,1.2-1.1,1.9-1.1c0.7,0,1.3,0.5,1.7,1.3c0.4,0.8,0.6,1.8,0.6,2.9c-0.1,1.1-0.4,2.1-0.9,2.8c-0.5,0.7-1.2,1.1-1.9,1.1
	c-0.7,0-1.3-0.5-1.7-1.3c-0.4-0.8-0.6-1.8-0.6-2.9C20.4,11.2,20.7,10.2,21.3,9.5z M10.2,8.7c0.5-0.7,1.1-1.2,1.8-1.2
	s1.3,0.4,1.8,1.2c0.5,0.7,0.7,1.8,0.7,2.8c0,1.1-0.3,2.1-0.7,2.8c-0.5,0.8-1.1,1.2-1.8,1.2c-0.7,0-1.3-0.4-1.8-1.2
	c-0.5-0.7-0.7-1.8-0.7-2.8C9.5,10.4,9.7,9.4,10.2,8.7z M31.4,15.9c-0.3,0.5-2.6,6.3-6.3,10c-2.3,2.3-5.7,4.5-9.1,4.1
	c-3.4-0.5-6.1-3-7.8-5.9c-0.9-1.4-2.7-5-3.3-7.6c-0.1-0.6,0.4-0.7,0.5-0.4c1.1,1.9,5.8,6,11.8,6.2c2.7,0.1,6.1-0.7,8.4-2.1
	c1.9-1.2,3.7-3.1,5.2-5C31.1,14.8,31.6,15.4,31.4,15.9z"/>
</svg>
